%YAML 1.1
%TAG !u! tag:unity3d.com,2011:
--- !u!114 &11400000
MonoBehaviour:
  m_ObjectHideFlags: 0
  m_CorrespondingSourceObject: {fileID: 0}
  m_PrefabInstance: {fileID: 0}
  m_PrefabAsset: {fileID: 0}
  m_GameObject: {fileID: 0}
  m_Enabled: 1
  m_EditorHideFlags: 0
  m_Script: {fileID: 11500000, guid: a6b194f808b1af6499c93410e504af42, type: 3}
  m_Name: stalker_Atlas
  m_EditorClassIdentifier: 
  atlasFile: {fileID: 4900000, guid: 5fb1ea3111493fa47b69a205342f6599, type: 3}
  materials:
  - {fileID: 2100000, guid: d7306e3c1664cd040ab990cdf6577c3f, type: 2}
